%YAML 1.1
%TAG !u! tag:unity3d.com,2011:
--- !u!74 &7400000
AnimationClip:
  m_ObjectHideFlags: 0
  m_PrefabParentObject: {fileID: 0}
  m_PrefabInternal: {fileID: 0}
  m_Name: DEAD
  serializedVersion: 6
  m_Legacy: 0
  m_Compressed: 0
  m_UseHighQualityCurve: 1
  m_RotationCurves: []
  m_CompressedRotationCurves: []
  m_EulerCurves: []
  m_PositionCurves: []
  m_ScaleCurves: []
  m_FloatCurves: []
  m_PPtrCurves:
  - curve:
    - time: 0
      value: {fileID: 21300000, guid: 9b20625943bf25945ab8c15319aa48a3, type: 3}
    - time: 0.083333336
      value: {fileID: 21300000, guid: 42cfe2c71a30c004f88eec24310cd7e8, type: 3}
    - time: 0.16666667
      value: {fileID: 21300000, guid: 53d9121f564eb064188b6df020f87e31, type: 3}
    - time: 0.25
      value: {fileID: 21300000, guid: a0f7ddf55fc7b03488d04d0b2e17d437, type: 3}
    - time: 0.33333334
      value: {fileID: 21300000, guid: 7a395e1626503aa468c95e15e20b01fa, type: 3}
    - time: 0.41666666
      value: {fileID: 21300000, guid: f959d0fac02fa4246bec172c741f989c, type: 3}
    - time: 0.5
      value: {fileID: 21300000, guid: 7378e0042550e204990eaa6536024bda, type: 3}
    - time: 0.5833333
      value: {fileID: 21300000, guid: 16528f8ccaf90fd4e88919291cc06f8e, type: 3}
    - time: 0.6666667
      value: {fileID: 21300000, guid: d5aeb1c7b12bef84caf45bc3a8ae001c, type: 3}
    - time: 0.75
      value: {fileID: 21300000, guid: bd9512063a8231a498e27f444eb87612, type: 3}
    attribute: m_Sprite
    path: 
    classID: 212
    script: {fileID: 0}
  m_SampleRate: 12
  m_WrapMode: 0
  m_Bounds:
    m_Center: {x: 0, y: 0, z: 0}
    m_Extent: {x: 0, y: 0, z: 0}
  m_ClipBindingConstant:
    genericBindings:
    - serializedVersion: 2
      path: 0
      attribute: 0
      script: {fileID: 0}
      typeID: 212
      customType: 23
      isPPtrCurve: 1
    pptrCurveMapping:
    - {fileID: 21300000, guid: 9b20625943bf25945ab8c15319aa48a3, type: 3}
    - {fileID: 21300000, guid: 42cfe2c71a30c004f88eec24310cd7e8, type: 3}
    - {fileID: 21300000, guid: 53d9121f564eb064188b6df020f87e31, type: 3}
    - {fileID: 21300000, guid: a0f7ddf55fc7b03488d04d0b2e17d437, type: 3}
    - {fileID: 21300000, guid: 7a395e1626503aa468c95e15e20b01fa, type: 3}
    - {fileID: 21300000, guid: f959d0fac02fa4246bec172c741f989c, type: 3}
    - {fileID: 21300000, guid: 7378e0042550e204990eaa6536024bda, type: 3}
    - {fileID: 21300000, guid: 16528f8ccaf90fd4e88919291cc06f8e, type: 3}
    - {fileID: 21300000, guid: d5aeb1c7b12bef84caf45bc3a8ae001c, type: 3}
    - {fileID: 21300000, guid: bd9512063a8231a498e27f444eb87612, type: 3}
  m_AnimationClipSettings:
    serializedVersion: 2
    m_AdditiveReferencePoseClip: {fileID: 0}
    m_AdditiveReferencePoseTime: 0
    m_StartTime: 0
    m_StopTime: 0.8333333
    m_OrientationOffsetY: 0
    m_Level: 0
    m_CycleOffset: 0
    m_HasAdditiveReferencePose: 0
    m_LoopTime: 1
    m_LoopBlend: 0
    m_LoopBlendOrientation: 0
    m_LoopBlendPositionY: 0
    m_LoopBlendPositionXZ: 0
    m_KeepOriginalOrientation: 0
    m_KeepOriginalPositionY: 1
    m_KeepOriginalPositionXZ: 0
    m_HeightFromFeet: 0
    m_Mirror: 0
  m_EditorCurves: []
  m_EulerEditorCurves: []
  m_HasGenericRootTransform: 0
  m_HasMotionFloatCurves: 0
  m_GenerateMotionCurves: 0
  m_Events: []
